<?xml version="1.0" encoding="UTF-8" standalone="no"?>
<svg width="16px" height="30px" viewBox="0 0 16 30" version="1.1" xmlns="http://www.w3.org/2000/svg" xmlns:xlink="http://www.w3.org/1999/xlink">
    <!-- Generator: Sketch 44.1 (41455) - http://www.bohemiancoding.com/sketch -->
    <title>Fill 3</title>
    <desc>Created with Sketch.</desc>
    <defs></defs>
    <g id="Responsive" stroke="none" stroke-width="1" fill="none" fill-rule="evenodd">
        <g id="Responsive-menu--2" transform="translate(-176.000000, -428.000000)" fill="#FFFFFF">
            <path d="M186.224044,430.310306 L177.270991,444.404199 L182.873664,444.404199 L183.335877,444.98206 L180.73664,454.570609 L190.729388,440.707633 L185.18435,440.707633 L184.722137,440.187786 L186.224044,430.310306 Z M187.495035,428.288551 L185.704197,439.783207 L191.653435,439.783207 L192,440.534351 L179.985876,457.169846 L179.177098,456.765647 L182.296182,445.328625 L176.404579,445.328625 L176,444.635495 L186.628244,428 L187.495035,428.288551 Z" id="Fill-3"></path>
        </g>
    </g>
</svg>